\relax 
\catcode `"\active 
\citation{Pawlowski10}
\citation{peter2011}
\bibstyle{sbc}
\bibdata{biblio/bibliografia}
\bibcite{peter2011}{Kogge 2011}
\select@language{portuges}
\@writefile{toc}{\select@language{portuges}}
\@writefile{lof}{\select@language{portuges}}
\@writefile{lot}{\select@language{portuges}}
\@writefile{toc}{\contentsline {section}{\numberline {1}Introdu\IeC {\c c}\IeC {\~a}o}{1}}
\newlabel{sec:introducao}{{1}{1}}
\@writefile{toc}{\contentsline {section}{\numberline {2}Trabalhos Relacionados}{1}}
\newlabel{sec:trabrel}{{2}{1}}
\@writefile{toc}{\contentsline {section}{\numberline {3}Experimentos e Resultados}{1}}
\newlabel{sec:proposta}{{3}{1}}
\@writefile{toc}{\contentsline {subsection}{\numberline {3.1}Testes}{1}}
\@writefile{toc}{\contentsline {subsection}{\numberline {3.2}Resultados}{1}}
\@writefile{lot}{\contentsline {table}{\numberline {1}{\ignorespaces Resultados dos testes }}{1}}
\newlabel{Tabela1}{{1}{1}}
\@writefile{toc}{\contentsline {section}{\numberline {4}Conclus\IeC {\~a}o e Trabalhos Futuros}{1}}
\newlabel{sec:conclusao}{{4}{1}}
\bibcite{Pawlowski10}{Pawlowski 2010}
\@writefile{lof}{\contentsline {figure}{\numberline {1}{\ignorespaces Nome da figura.}}{2}}
\newlabel{figura_exemplo}{{1}{2}}
