\begin{thebibliography}{}

\bibitem[Kogge 2011]{peter2011}
Kogge, P. (2011).
\newblock The tops in flops.
\newblock {\em Spectrum, IEEE}, 48(2):44--50.

\bibitem[Pawlowski 2010]{Pawlowski10}
Pawlowski, S.~S. (2010).
\newblock Exascale science: the next frontier in high performance computing.
\newblock In {\em The 24th International Conference on Supercomputing (ICS)},
  page~1.

\end{thebibliography}
